SOL MLE Analysis
…
Split-half reliability analysis

Load trial-level data

trial_df <- read_csv("../../data/processed_data/summary_tables/sol_trial_level_df.csv")

First, we create two bins of trials for each participant by sorting based on even vs.odd trial numbers.

trial_df %<>% mutate(split_half = ifelse(Tr.Num %% 2 == 0, "first", "second"))

trial_df %>% 
  group_by(Sub.Num, age_code, split_half) %>% 
  summarise(n_trials = n())

## Source: local data frame [90 x 4]
## Groups: Sub.Num, age_code [?]
## 
##    Sub.Num age_code split_half n_trials
##      <int>    <chr>      <chr>    <int>
## 1    30004    adult      first       20
## 2    30004    adult     second       20
## 3    30005    adult      first       18
## 4    30005    adult     second       18
## 5    30006    adult      first       18
## 6    30006    adult     second       18
## 7    30007    adult      first       13
## 8    30007    adult     second       13
## 9    30009    child      first       15
## 10   30009    child     second       16
## # ... with 80 more rows
…
